Junk/IR.vcd
$date
	Sat Dec 16 12:24:12 2023
$end
$version
	Icarus Verilog
$end
$timescale
	1s
$end
$scope module IR_tb $end
$var wire 6 ! Source_Reg2 [5:0] $end
$var wire 6 " Source_Reg1 [5:0] $end
$var wire 3 # Opcode [2:0] $end
$var wire 6 $ Dest_Reg [5:0] $end
$var reg 1 % Clk $end
$var reg 1 & IR_Load $end
$var reg 21 ' Ram_Inst_Out [20:0] $end
$var integer 32 ( address [31:0] $end
$var integer 32 ) in_file [31:0] $end
$var integer 32 * out_file [31:0] $end
$scope module instruction_register $end
$var wire 1 % Clk $end
$var wire 1 & IR_Load $end
$var wire 21 + Ram_Inst_Out [20:0] $end
$var reg 6 , Dest_Reg [5:0] $end
$var reg 3 - Opcode [2:0] $end
$var reg 6 . Source_Reg1 [5:0] $end
$var reg 6 / Source_Reg2 [5:0] $end
$upscope $end
$upscope $end
$enddefinitions $end
#0
$dumpvars
bx /
bx .
bx -
bx ,
bx +
b10000000000000000000000000000100 *
b10000000000000000000000000000011 )
b0 (
bx '
0&
1%
bx $
bx #
bx "
bx !
$end
#5
0%
#10
b100100 $
b100100 ,
b10100 !
b10100 /
b10011 "
b10011 .
b101 #
b101 -
1%
b101010011010100100100 '
b101010011010100100100 +
1&
#15
0%
#20
1%
b1 (
0&
#25
0%
#30
b1 $
b1 ,
b111010 !
b111010 /
b10101 "
b10101 .
b10 #
b10 -
1%
b10010101111010000001 '
b10010101111010000001 +
1&
#35
0%
#40
1%
b10 (
0&
#45
0%
#50
b1001 $
b1001 ,
b11000 !
b11000 /
b1101 "
b1101 .
b1 #
b1 -
1%
b1001101011000001001 '
b1001101011000001001 +
1&
#55
0%
#60
1%
b11 (
0&
#65
0%
#70
b100011 $
b100011 ,
b11001 !
b11001 /
b101 "
b101 .
b100 #
b100 -
1%
b100000101011001100011 '
b100000101011001100011 +
1&
#75
0%
#80
1%
b100 (
0&
#85
0%
#90
b1101 $
b1101 ,
b101100 !
b101100 /
b10111 "
b10111 .
b110 #
b110 -
1%
b110010111101100001101 '
b110010111101100001101 +
1&
#95
0%
#100
1%
b101 (
0&
#105
0%
#110
b100110 !
b100110 /
b111001 "
b111001 .
b111 #
b111 -
1%
b111111001100110001101 '
b111111001100110001101 +
1&
#115
0%
#120
1%
b110 (
0&
#125
0%
#130
b100101 $
b100101 ,
b10001 !
b10001 /
b101000 "
b101000 .
b0 #
b0 -
1%
b101000010001100101 '
b101000010001100101 +
1&
#135
0%
#140
1%
b111 (
0&
#145
0%
#150
b10010 $
b10010 ,
b1000 !
b1000 /
b110101 "
b110101 .
b101 #
b101 -
1%
b101110101001000010010 '
b101110101001000010010 +
1&
#155
0%
#160
1%
b1000 (
0&
#165
0%
#170
b1 $
b1 ,
b1100 !
b1100 /
b111110 "
b111110 .
b100 #
b100 -
1%
b100111110001100000001 '
b100111110001100000001 +
1&
#175
0%
#180
1%
b1001 (
0&
#185
0%
#190
b1101 $
b1101 ,
b110100 !
b110100 /
b111100 "
b111100 .
b101 #
b101 -
1%
b101111100110100001101 '
b101111100110100001101 +
1&
#195
0%
#200
1%
b1010 (
0&
#205
0%
#210
b110110 $
b110110 ,
b101 !
b101 /
b111111 "
b111111 .
b0 #
b0 -
1%
b111111000101110110 '
b111111000101110110 +
1&
#215
0%
#220
1%
b1011 (
0&
#225
0%
#230
b111101 $
b111101 ,
b110100 !
b110100 /
b11100 "
b11100 .
b11 #
b11 -
1%
b11011100110100111101 '
b11011100110100111101 +
1&
#235
0%
#240
1%
b1100 (
0&
#245
0%
#250
b101101 $
b101101 ,
b11111 !
b11111 /
b101 "
b101 .
b101 #
b101 -
1%
b101000101011111101101 '
b101000101011111101101 +
1&
#255
0%
#260
1%
b1101 (
0&
#265
0%
#270
b1100 $
b1100 ,
b11110 !
b11110 /
b11111 "
b11111 .
b11 #
b11 -
1%
b11011111011110001100 '
b11011111011110001100 +
1&
#275
0%
#280
1%
b1110 (
0&
#285
0%
#290
b111001 $
b111001 ,
b100111 !
b100111 /
b11110 "
b11110 .
b111 #
b111 -
1%
b111011110100111111001 '
b111011110100111111001 +
1&
#295
0%
#300
1%
b1111 (
0&
#305
0%
#310
b110 $
b110 ,
b10011 !
b10011 /
b110010 "
b110010 .
b101 #
b101 -
1%
b101110010010011000110 '
b101110010010011000110 +
1&
#315
0%
#320
1%
b10000 (
0&
#325
0%
#330
b101 $
b101 ,
b111000 "
b111000 .
1%
b101111000010011000101 '
b101111000010011000101 +
1&
#335
0%
#340
1%
b10001 (
0&
#345
0%
#350
b101010 $
b101010 ,
b1010 !
b1010 /
b111101 "
b111101 .
b100 #
b100 -
1%
b100111101001010101010 '
b100111101001010101010 +
1&
#355
0%
#360
1%
b10010 (
0&
#365
0%
#370
b100101 $
b100101 ,
b11111 !
b11111 /
b111111 "
b111111 .
b11 #
b11 -
1%
b11111111011111100101 '
b11111111011111100101 +
1&
#375
0%
#380
1%
b10011 (
0&
#385
0%
#390
b110111 $
b110111 ,
b1001 !
b1001 /
b100111 "
b100111 .
b100 #
b100 -
1%
b100100111001001110111 '
b100100111001001110111 +
1&
#395
0%
#400
1%
b10100 (
0&
#405
0%
#410
b10010 $
b10010 ,
b11000 !
b11000 /
b101101 "
b101101 .
1%
b100101101011000010010 '
b100101101011000010010 +
1&
#415
0%
#420
1%
b10101 (
0&
#425
0%
#430
b1111 $
b1111 ,
b101110 !
b101110 /
b1101 "
b1101 .
b11 #
b11 -
1%
b11001101101110001111 '
b11001101101110001111 +
1&
#435
0%
#440
1%
b10110 (
0&
#445
0%
#450
b110010 $
b110010 ,
b100111 !
b100111 /
b110 "
b110 .
b100 #
b100 -
1%
b100000110100111110010 '
b100000110100111110010 +
1&
#455
0%
#460
1%
b10111 (
0&
#465
0%
#470
b1110 $
b1110 ,
b11011 !
b11011 /
b101001 "
b101001 .
b101 #
b101 -
1%
b101101001011011001110 '
b101101001011011001110 +
1&
#475
0%
#480
1%
b11000 (
0&
#485
0%
#490
b101000 $
b101000 ,
b101011 !
b101011 /
b111 "
b111 .
b0 #
b0 -
1%
b111101011101000 '
b111101011101000 +
1&
#495
0%
#500
1%
b11001 (
0&
#505
0%
#510
b101 $
b101 ,
b111011 !
b111011 /
b100100 "
b100100 .
b10 #
b10 -
1%
b10100100111011000101 '
b10100100111011000101 +
1&
#515
0%
#520
1%
b11010 (
0&
#525
0%
#530
b11100 $
b11100 ,
b100101 !
b100101 /
b100 "
b100 .
b110 #
b110 -
1%
b110000100100101011100 '
b110000100100101011100 +
1&
#535
0%
#540
1%
b11011 (
0&
#545
0%
#550
b111101 $
b111101 ,
b100010 !
b100010 /
b100010 "
b100010 .
b11 #
b11 -
1%
b11100010100010111101 '
b11100010100010111101 +
1&
#555
0%
#560
1%
b11100 (
0&
#565
0%
#570
b101101 $
b101101 ,
b100000 !
b100000 /
b110101 "
b110101 .
b10 #
b10 -
1%
b10110101100000101101 '
b10110101100000101101 +
1&
#575
0%
#580
1%
b11101 (
0&
#585
0%
#590
b100101 $
b100101 ,
b11001 !
b11001 /
b110010 "
b110010 .
b1 #
b1 -
1%
b1110010011001100101 '
b1110010011001100101 +
1&
#595
0%
#600
1%
b11110 (
0&
#605
0%
#610
b100011 $
b100011 ,
b1001 !
b1001 /
b110110 "
b110110 .
b11 #
b11 -
1%
b11110110001001100011 '
b11110110001001100011 +
1&
#615
0%
#620
1%
b11111 (
0&
#625
0%
#630
b1010 $
b1010 ,
b11100 !
b11100 /
b111000 "
b111000 .
b100 #
b100 -
1%
b100111000011100001010 '
b100111000011100001010 +
1&
#635
0%
#640
1%
b100000 (
0&
#645
0%
#650
b0 $
b0 ,
b1010 !
b1010 /
b110010 "
b110010 .
b110 #
b110 -
1%
b110110010001010000000 '
b110110010001010000000 +
1&
#655
0%
#660
1%
b100001 (
0&
#665
0%
#670
b100000 $
b100000 ,
b100 !
b100 /
b10 "
b10 .
b1 #
b1 -
1%
b1000010000100100000 '
b1000010000100100000 +
1&
#675
0%
#680
1%
b100010 (
0&
#685
0%
#690
b101010 $
b101010 ,
b10110 !
b10110 /
b100 "
b100 .
b110 #
b110 -
1%
b110000100010110101010 '
b110000100010110101010 +
1&
#695
0%
#700
1%
b100011 (
0&
#705
0%
#710
b11101 $
b11101 ,
b110010 !
b110010 /
b1100 "
b1100 .
b11 #
b11 -
1%
b11001100110010011101 '
b11001100110010011101 +
1&
#715
0%
#720
1%
b100100 (
0&
#725
0%
#730
b10110 $
b10110 ,
b111010 !
b111010 /
b11 "
b11 .
b0 #
b0 -
1%
b11111010010110 '
b11111010010110 +
1&
#735
0%
#740
1%
b100101 (
0&
#745
0%
#750
b10011 $
b10011 ,
b100000 !
b100000 /
b111011 "
b111011 .
1%
b111011100000010011 '
b111011100000010011 +
1&
#755
0%
#760
1%
b100110 (
0&
#765
0%
#770
b1101 $
b1101 ,
b11 "
b11 .
b111 #
b111 -
1%
b111000011100000001101 '
b111000011100000001101 +
1&
#775
0%
#780
1%
b100111 (
0&
#785
0%
#790
b10011 $
b10011 ,
b11001 !
b11001 /
b111101 "
b111101 .
b1 #
b1 -
1%
b1111101011001010011 '
b1111101011001010011 +
1&
#795
0%
#800
1%
b101000 (
0&
#805
0%
#810
b101011 $
b101011 ,
b110101 !
b110101 /
b111 #
b111 -
1%
b111111101110101101011 '
b111111101110101101011 +
1&
#815
0%
#820
1%
b101001 (
0&
#825
0%
#830
b10101 $
b10101 ,
b101011 !
b101011 /
b100010 "
b100010 .
b1 #
b1 -
1%
b1100010101011010101 '
b1100010101011010101 +
1&
#835
0%
#840
1%
b101010 (
0&
#845
0%
#850
b10 $
b10 ,
b101000 !
b101000 /
b110100 "
b110100 .
b101 #
b101 -
1%
b101110100101000000010 '
b101110100101000000010 +
1&
#855
0%
#860
1%
b101011 (
0&
#865
0%
#870
b101110 $
b101110 ,
b111010 !
b111010 /
b100011 "
b100011 .
1%
b101100011111010101110 '
b101100011111010101110 +
1&
#875
0%
#880
1%
b101100 (
0&
#885
0%
#890
b11101 $
b11101 ,
b100100 !
b100100 /
b111110 "
b111110 .
b111 #
b111 -
1%
b111111110100100011101 '
b111111110100100011101 +
1&
#895
0%
#900
1%
b101101 (
0&
#905
0%
#910
b1111 $
b1111 ,
b1011 !
b1011 /
b10111 "
b10111 .
b1 #
b1 -
1%
b1010111001011001111 '
b1010111001011001111 +
1&
#915
0%
#920
1%
b101110 (
0&
#925
0%
#930
b100011 $
b100011 ,
b100100 !
b100100 /
b100 "
b100 .
1%
b1000100100100100011 '
b1000100100100100011 +
1&
#935
0%
#940
1%
b101111 (
0&
#945
0%
#950
b1010 $
b1010 ,
b10100 !
b10100 /
b10110 "
b10110 .
b10 #
b10 -
1%
b10010110010100001010 '
b10010110010100001010 +
1&
#955
0%
#960
1%
b110000 (
0&
#965
0%
#970
b101011 !
b101011 /
b110000 "
b110000 .
b100 #
b100 -
1%
b100110000101011001010 '
b100110000101011001010 +
1&
#975
0%
#980
1%
b110001 (
0&
#985
0%
#990
b111100 $
b111100 ,
b110000 !
b110000 /
b10100 "
b10100 .
1%
b100010100110000111100 '
b100010100110000111100 +
1&
#995
0%
#1000
1%
b110010 (
0&
#1005
0%
#1010
b110010 $
b110010 ,
b110111 !
b110111 /
b1011 "
b1011 .
b10 #
b10 -
1%
b10001011110111110010 '
b10001011110111110010 +
1&
#1015
0%
#1020
1%
b110011 (
0&
#1025
0%
#1030
b1010 $
b1010 ,
b110 !
b110 /
b100110 "
b100110 .
b11 #
b11 -
1%
b11100110000110001010 '
b11100110000110001010 +
1&
#1035
0%
#1040
1%
b110100 (
0&
#1045
0%
#1050
b1 $
b1 ,
b1101 !
b1101 /
b1011 "
b1011 .
b1 #
b1 -
1%
b1001011001101000001 '
b1001011001101000001 +
1&
#1055
0%
#1060
1%
b110101 (
0&
#1065
0%
#1070
b11000 $
b11000 ,
b10011 !
b10011 /
b110011 "
b110011 .
b10 #
b10 -
1%
b10110011010011011000 '
b10110011010011011000 +
1&
#1075
0%
#1080
1%
b110110 (
0&
#1085
0%
#1090
b111000 $
b111000 ,
b1101 !
b1101 /
b1111 "
b1111 .
b0 #
b0 -
1%
b1111001101111000 '
b1111001101111000 +
1&
#1095
0%
#1100
1%
b110111 (
0&
#1105
0%
#1110
b1001 $
b1001 ,
b1010 !
b1010 /
b100001 "
b100001 .
b10 #
b10 -
1%
b10100001001010001001 '
b10100001001010001001 +
1&
#1115
0%
#1120
1%
b111000 (
0&
#1125
0%
#1130
b101011 $
b101011 ,
b110111 !
b110111 /
b10000 "
b10000 .
b1 #
b1 -
1%
b1010000110111101011 '
b1010000110111101011 +
1&
#1135
0%
#1140
1%
b111001 (
0&
#1145
0%
#1150
b110110 $
b110110 ,
b10110 !
b10110 /
b100110 "
b100110 .
b0 #
b0 -
1%
b100110010110110110 '
b100110010110110110 +
1&
#1155
0%
#1160
1%
b111010 (
0&
#1165
0%
#1170
b110 $
b110 ,
b100111 !
b100111 /
b111111 "
b111111 .
b10 #
b10 -
1%
b10111111100111000110 '
b10111111100111000110 +
1&
#1175
0%
#1180
1%
b111011 (
0&
#1185
0%
#1190
b101110 $
b101110 ,
b1110 !
b1110 /
b10001 "
b10001 .
b101 #
b101 -
1%
b101010001001110101110 '
b101010001001110101110 +
1&
#1195
0%
#1200
1%
b111100 (
0&
#1205
0%
#1210
b111100 $
b111100 ,
b1010 !
b1010 /
b10000 "
b10000 .
1%
b101010000001010111100 '
b101010000001010111100 +
1&
#1215
0%
#1220
1%
b111101 (
0&
#1225
0%
#1230
b101010 $
b101010 ,
b110100 !
b110100 /
b111101 "
b111101 .
b11 #
b11 -
1%
b11111101110100101010 '
b11111101110100101010 +
1&
#1235
0%
#1240
1%
b111110 (
0&
#1245
0%
#1250
b1011 $
b1011 ,
b101000 !
b101000 /
b111001 "
b111001 .
b101 #
b101 -
1%
b101111001101000001011 '
b101111001101000001011 +
1&
#1255
0%
#1260
1%
b111111 (
0&
#1265
0%
#1270
b110001 $
b110001 ,
b111001 !
b111001 /
b111011 "
b111011 .
1%
b101111011111001110001 '
b101111011111001110001 +
1&
#1275
0%
#1280
1%
b1000000 (
0&
